[
  {
      "id": 1,
      "name": "Land Rover Range Rover Evoque 2012",
      "price": 18999,
      "imagePath": "https://cdn2.riastatic.com/photosnew/auto/photo/land-rover_range-rover-evoque__523450612hd.webp",
      "article": "1234561",
      "color": "Blue"
  },
  {
      "id": 2,
      "name": "Volkswagen ID.4 2023",
      "price": 27500,
      "imagePath": "https://cdn.riastatic.com/photosnewr/auto/new_auto_storage/volkswagen-id-4__2136634-1280x960x90.webp",
      "article": "1234562",
      "color": "White"
  },
  {
      "id": 3,
      "name": "Mercedes-Benz GLE-Class 2021",
      "price": 78675,
      "imagePath": "https://cdn2.riastatic.com/photosnew/auto/photo/mercedes-benz_gle-class__523519537hd.webp",
      "article": "1234563",
      "color": "Black"
  },
  {
      "id": 4,
      "name": "BMW X6 2023",
      "price": 153800,
      "imagePath": "https://cdn3.riastatic.com/photosnew/auto/photo/bmw_x6__513714648hd.webp",
      "article": "1234564",
      "color": "Green"
  },
  {
      "id": 5,
      "name": "Mercedes-Benz G-Class 2020",
      "price": 185900,
      "imagePath": "https://cdn3.riastatic.com/photosnew/auto/photo/mercedes-benz_g-class__518983883hd.webp",
      "article": "1234565",
      "color": "Black"
  },
  {
      "id": 6,
      "name": "BMW 2 Series Gran Coupe 2022",
      "price": 42800,
      "imagePath": "https://cdn2.riastatic.com/photosnew/auto/photo/bmw_2-series-gran-coupe__519115582hd.webp",
      "article": "1234566",
      "color": "White"
  },
  {
      "id": 7,
      "name": "Audi RS Q8 2021",
      "price": 119900,
      "imagePath": "https://cdn2.riastatic.com/photosnew/auto/photo/audi_rs-q8__523192122hd.webp",
      "article": "1234567",
      "color": "Червоний"
  },
  {
      "id": 8,
      "name": "Porsche Taycan 2022",
      "price": 123837,
      "imagePath": "https://cdn.riastatic.com/photosnewr/auto/new_auto_storage/porsche-taycan__1964743-1920x1080x90.webp",
      "article": "1234568",
      "color": "Gentian Blue"
  },
  {
      "id": 9,
      "name": "Porsche 911 2023",
      "price": 218234,
      "imagePath": "https://cdn.riastatic.com/photosnewr/auto/new_auto_storage/porsche-911__2158892-1280x960x90.webp",
      "article": "1234569",
      "color": "Crayon"
  },
  {
      "id": 10,
      "name": "Rolls-Royce Cullinan 2018",
      "price": 399900,
      "imagePath": "https://cdn4.riastatic.com/photosnew/auto/photo/rolls-royce_cullinan__522320979hd.webp",
      "article": "12345610",
      "color": "Black"
  }
]
